{
    "Deck": {
        "name": "Thoth",
        "description": "Crowley originally intended the Thoth deck to be a six-month project aimed at updating the traditional pictorial symbolism of the tarot. However, the project was to span five years, between 1938 and 1943, as its scope grew ever wider. Crowley and Harris were meticulous in their work, and Harris painted some of the cards as many as eight times.The current edition of the U.S. Games Systems deck contains two prototypes of The Magus card as painted by Lady Harris, each making use of markedly different style and symbols. These were never intended to be a part of the deck proper but were completed by Lady Harris but rejected by Crowley. They are included as a bonus treat for aficionados of the deck. Neither Harris nor Crowley lived to see the deck published. The first full publication was by Ordo Templi Orientis in 1969, although this initial printing was seen by many to be of inferior quality, and in 1977 Harris' paintings were rephotographed for a second edition. A further update with new photography took place in 1986, while the current edition is based on a revision of this update which was first printed in 1996.",
        "author": "Aliester Crowley",
        "Cards": [
            {
                "number": 7,
                "name": "Seven of Disks",
                "lord": "Earth is considered passive, feminine, solid, physical, stable, slow-moving, and grounded.",
                "rune": "",
                "element_name": "Earth",
                "stone": "",
                "sign_name": "Taurus",
                "decan_name": "Saturn",
                "astro": "",
                "divination": "Labor abandoned, sloth, unprofitable speculation, promises of success unfulfilled, hopes deceived, disappointment, little gain from much labor. Well dignified: Delay but rowth, honorable work undertaken for the love of work with no expectation of material gain.",
                "seph_number": "7. Netzach, Victory, Venus, each of these describes what is required within its respective element.",
                "hebrew_name": "light. Inertia. Promises of success unfulfilled (shown, as it were, by the fact that the rosebuds do not come to anything).",
                "roman": ""
            },
            {
                "number": 6,
                "name": "Six of Disks",
                "lord": "Earth is considered passive, feminine, solid, physical, stable, slow-moving, and grounded.",
                "rune": "",
                "element_name": "Earth",
                "stone": "",
                "sign_name": "Taurus",
                "decan_name": "Moon",
                "astro": "",
                "divination": "Success and gain in material things, power, influence, nobility, philanthropy, somewhat dreamy and transitory situation. Ill dignified: Insolence, conceit with wealth, prodigality.",
                "seph_number": "6. Tipereth, Beauty, the Sun, These show the mark of beauty within the domain of the suit.",
                "hebrew_name": "Material success and gain. Settling down; successful stabilization of circumstances.",
                "roman": ""
            },
            {
                "number": 0,
                "name": "Prince of Disks",
                "lord": "The Price of the Chariot of Earth",
                "rune": "",
                "element_name": "Earth",
                "stone": "",
                "sign_name": "",
                "decan_name": "",
                "astro": "",
                "divination": "Represents the airy part of earth. A young man bringing great energy to practical matters, a capable manager and steadfast worker, competent, perhaps considered dull, somewhat resentful of spiritual types, slow to anger but implacable if aroused.",
                "seph_number": "6. Tipereth, Beauty, the Sun, These show the mark of beauty within the domain of the suit.",
                "hebrew_name": "He rules from 20° Aries to 20° Taurus. He is the agency of equilibration between the light and dark aspects of manifestation: called MATERIAL SUCCESS.",
                "roman": ""
            },
            {
                "number": 0,
                "name": "Princess of Disks",
                "lord": "The Princess of the Echoing Hills: the Rose of the Palace of Earth.",
                "rune": "",
                "element_name": "Earth",
                "stone": "",
                "sign_name": "",
                "decan_name": "",
                "astro": "",
                "divination": "Represents the earthy part of earth. A young woman beautiful and strong, as if beholding a secret wonder, pregnant with all life, generous, kind, diligent, benevolent, persevering. Ill dignified: Wasteful and prodigal woman at war with her essential dignity.",
                "seph_number": "10. Malkuth, Kingdom, the Earth or field, representing the fixed, culminated, or completed force of the element of the suit.",
                "hebrew_name": "She rules that quadrant of the heavens about the North Ecliptical Pole reaching from 0° Aries to 30° Gemini, centered on the Earthy Kerubic constellation Taurus. Taurus represents that Power of the Sphinx called To Will, and corresponds to the Kerubic attribute of Life.",
                "roman": ""
            },
            {
                "number": 10,
                "name": "Ten of Disks",
                "lord": "Earth is considered passive, feminine, solid, physical, stable, slow-moving, and grounded.",
                "rune": "",
                "element_name": "Earth",
                "stone": "",
                "sign_name": "Virgo",
                "decan_name": "Mercury",
                "astro": "",
                "divination": "Material prosperity and riches, completion of material fortune but nothing beyond final solidification unless this is devotion to creativity, old age. Ill dignified: Slothfulness, may mean partial loss, dullness of mind with acuity and profit in money transactions, heaviness.",
                "seph_number": "10. Malkuth, Kingdom, the Earth or field, representing the fixed, culminated, or completed force of the element of the suit.",
                "hebrew_name": "Completion of material gain and fortune; as it were, at the very pinnacle of success (but nothing beyond?).",
                "roman": ""
            },
            {
                "number": 9,
                "name": "Nine of Disks",
                "lord": "Earth is considered passive, feminine, solid, physical, stable, slow-moving, and grounded.",
                "rune": "",
                "element_name": "Earth",
                "stone": "",
                "sign_name": "Virgo",
                "decan_name": "Venus",
                "astro": "",
                "divination": " Good luck attending material affairs, inheritance, great increase of wealth, completion of material gain. Ill dignified: covetousness, theft, knavery.",
                "seph_number": "9. Yesod, Foundation, the Moon, these show the fullest practical formulation of the element that precedes it.",
                "hebrew_name": "Complete realization of material gain, goods, riches; good fortune in material affairs; treasuring of goods.",
                "roman": ""
            },
            {
                "number": 8,
                "name": "Eight of Disks",
                "lord": "Earth is considered passive, feminine, solid, physical, stable, slow-moving, and grounded.",
                "rune": "",
                "element_name": "Earth",
                "stone": "",
                "sign_name": "Virgo",
                "decan_name": "Sun",
                "astro": "",
                "divination": "Intelligence applied to material affairs, agriculture, building, sill, cunning industriousness. Ill dignified: Avariciousness and hoarding, meanness, over-carefulness in small things that expense of the great.",
                "seph_number": "8. Hod, Glory, Mercury, These are passive in the nature of Hod, these can give direction or burden in their element.",
                "hebrew_name": "Calculation. Intelligence, skill, diligence, care to detail, methodical, orderly. Carefully applied to material matters.",
                "roman": ""
            },
            {
                "number": 0,
                "name": "Knight of Disks",
                "lord": "The Lord of the Wide & Fertile Land: the King of the Spirits of the Earth.",
                "rune": "",
                "element_name": "Earth",
                "stone": "",
                "sign_name": "",
                "decan_name": "",
                "astro": "",
                "divination": "Represents the fiery part of earth. A farmer, patient, laborious and clever in material things, perhaps somewhat dull and preoccupied with material affairs. Ill dignified: Avaricious, surly, petty, jealous, grasping man.",
                "seph_number": "2. Chokmah, Wisdom, the Zodiac, the Father, in practice shows polarity or seeming division.",
                "hebrew_name": "He rules from above 20° Leo to 20° Virgo. The first two decanates of Virgo, ruled by the Sun and Venus, are called PRUDENCE and GAIN.",
                "roman": ""
            },
            {
                "number": 0,
                "name": "Queen of Disks",
                "lord": "The Queen of the Thrones of Earth.",
                "rune": "",
                "element_name": "Earth",
                "stone": "",
                "sign_name": "",
                "decan_name": "",
                "astro": "",
                "divination": "Represents the water part of earth. A woman ambitious in useful directions, affectionate and kind, charming, timid, practical, quiet and domesticated. Ill dignified: Dull, servile, foolish, capricious, prone to debauch and moodiness.",
                "seph_number": "3. Binah, Understanding, Saturn, the Mother, the original idea of the element has become fertilized and formed a triangle to allow the birth of the Child.",
                "hebrew_name": "She rules the heavens from 20° Pisces to 20° Aries. From the fiery decanates we derive the titles DOMINION and VIRTUE or ESTABLISHED STRENGTH",
                "roman": ""
            },
            {
                "number": 3,
                "name": "Three of Cups",
                "lord": "Water is considered passive, feminine, receptive, sustaining, subconscious, creative, fluidic, and generative.",
                "rune": "",
                "element_name": "Water is considered passive, feminine, receptive, sustaining, subconscious, creative, fluidic, and generative. ",
                "stone": "",
                "sign_name": "Cancer",
                "decan_name": "Mercury",
                "astro": "",
                "divination": "Spiritual basis of fertility, plenty, hospitality, pleasure, sensuality, passive success, love, kindness, bounty, the good things of life, while they are to be enjoyed are transient and therefore cannot be relied on.",
                "seph_number": "3. Binah, Understanding, Saturn, the Mother, the original idea of the element has become fertilized and formed a triangle to allow the birth of the Child.",
                "hebrew_name": "Abundance, plenty, success, passive success; keen perception, memory;good luck and fortune; love, kindness, liberality.",
                "roman": ""
            },
            {
                "number": 2,
                "name": "Two of Cups",
                "lord": "Water is considered passive, feminine, receptive, sustaining, subconscious, creative, fluidic, and generative.",
                "rune": "",
                "element_name": "Water is considered passive, feminine, receptive, sustaining, subconscious, creative, fluidic, and generative. ",
                "stone": "",
                "sign_name": "Cancer",
                "decan_name": "Venus",
                "astro": "",
                "divination": "Harmony of male and female interpreted in the broadest sense, perfect and placid harmony radiation intense joy and ecstasy. Pleasure, warm friendship, mirth. Ill dignified: Indolent, selfish and luxurious woman.",
                "seph_number": "2. Chokmah, Wisdom, the Zodiac, the Father, in practice shows polarity or seeming division.",
                "hebrew_name": "Harmony, pleasure, mirth; an intensity of joy and ecstasy; powerful love feelings. If ill-dignified, folly, dissipation, waste, silly actions.",
                "roman": ""
            },
            {
                "number": 2,
                "name": "Ace of Cups",
                "lord": "The Root of the Powers of Water",
                "rune": "",
                "element_name": "Water is considered passive, feminine, receptive, sustaining, subconscious, creative, fluidic, and generative. ",
                "stone": "",
                "sign_name": "",
                "decan_name": "",
                "astro": "",
                "divination": "Root powers of water. Fertility, productiveness, beauty, pleasure and happiness.",
                "seph_number": "1. Kether, Crown, the Seed or Root; represents the root of the forces of the four elements.",
                "hebrew_name": "",
                "roman": ""
            },
            {
                "number": 7,
                "name": "Seven of Cups",
                "lord": "Water is considered passive, feminine, receptive, sustaining, subconscious, creative, fluidic, and generative.",
                "rune": "",
                "element_name": "Water is considered passive, feminine, receptive, sustaining, subconscious, creative, fluidic, and generative. ",
                "stone": "",
                "sign_name": "Scorpio",
                "decan_name": "Venus",
                "astro": "",
                "divination": "Delusion, illusory success, drug addiction, intoxication, guilt lying, deceit, promises unfulfilled, lust, fornication, dissipation in love and friendship, vanity.",
                "seph_number": "7. Netzach, Victory, Venus, each of these describes what is required within its respective element.",
                "hebrew_name": "Passionate disposition, strong powers of attraction. Possible success, but neutralized by the supineness of the person.",
                "roman": ""
            },
            {
                "number": 6,
                "name": "Six of Cups",
                "lord": "Water is considered passive, feminine, receptive, sustaining, subconscious, creative, fluidic, and generative.",
                "rune": "",
                "element_name": "Water is considered passive, feminine, receptive, sustaining, subconscious, creative, fluidic, and generative. ",
                "stone": "",
                "sign_name": "Scorpio",
                "decan_name": "Sun",
                "astro": "",
                "divination": "Well being, harmony of natural forces without effort or strain, ease, satisfaction, happiness, success, fulfillment of sexual will, beginning of steady increase (but beginning only). Ill dignified: Vanity, presumptuousness and thanklessness.",
                "seph_number": "6. Tipereth, Beauty, the Sun, These show the mark of beauty within the domain of the suit.",
                "hebrew_name": "Commencement of steady increase, gain, and pleasure; but commencement only. Fulfillment of the sexual Will.",
                "roman": ""
            },
            {
                "number": 5,
                "name": "Five of Cups",
                "lord": "Water is considered passive, feminine, receptive, sustaining, subconscious, creative, fluidic, and generative.",
                "rune": "",
                "element_name": "Water is considered passive, feminine, receptive, sustaining, subconscious, creative, fluidic, and generative. ",
                "stone": "",
                "sign_name": "Scorpio",
                "decan_name": "Mars",
                "astro": "",
                "divination": "End of pleasure, disturbance when least expected, misfortune, disappointment in love, unkindness from friends, loss of friendship, treachery, ill will, sadness, vain regret.",
                "seph_number": "5. Geburah, Strength, Severity, Mars, within the domain of the element of the suit.",
                "hebrew_name": "End or death of pleasure; disappointment; sorrow; loss or misfortune in those things from which pleasure is expected.",
                "roman": ""
            },
            {
                "number": 4,
                "name": "Four of Cups",
                "lord": "Water is considered passive, feminine, receptive, sustaining, subconscious, creative, fluidic, and generative.",
                "rune": "",
                "element_name": "Water is considered passive, feminine, receptive, sustaining, subconscious, creative, fluidic, and generative. ",
                "stone": "",
                "sign_name": "Cancer",
                "decan_name": "Moon",
                "astro": "",
                "divination": "Weakness, abandonment to desire, pleasure mixed with anxiety, blended success and pleasure possibly approaching their end. Injustice, the seeds of decay in the fruits of pleasure.",
                "seph_number": "4. Chesed, Mercy, Jupiter, signifying perfection, realization, and completion making a matter settled.",
                "hebrew_name": "Success or pleasure fulfilled. Strong feeling nature. A stationary period in happiness, which may, or may not, continue.",
                "roman": ""
            },
            {
                "number": 9,
                "name": "Nine of Cups",
                "lord": "Water is considered passive, feminine, receptive, sustaining, subconscious, creative, fluidic, and generative.",
                "rune": "",
                "element_name": "Water is considered passive, feminine, receptive, sustaining, subconscious, creative, fluidic, and generative. ",
                "stone": "",
                "sign_name": "Pisces",
                "decan_name": "Jupiter",
                "astro": "",
                "divination": "Complete success, pleasure and happiness, physical well being, happiness almost perfect but perhaps temporary. Ill dignified: Danger of vanity, self-praise, conceit, and over indulgence.",
                "seph_number": "9. Yesod, Foundation, the Moon, these show the fullest practical formulation of the element that precedes it.",
                "hebrew_name": "Complete realization of pleasure and happiness, almost perfect; heightened capacity for enjoyment.",
                "roman": ""
            },
            {
                "number": 8,
                "name": "Eight of Cups",
                "lord": "Water is considered passive, feminine, receptive, sustaining, subconscious, creative, fluidic, and generative.",
                "rune": "",
                "element_name": "Water is considered passive, feminine, receptive, sustaining, subconscious, creative, fluidic, and generative. ",
                "stone": "",
                "sign_name": "Pisces",
                "decan_name": "Saturn",
                "astro": "",
                "divination": "Abandoned success, decline of interest in anything, temporary success but without further result, instability, misery and repining journeying from place to place, may mean leaving material success for something higher.",
                "seph_number": "8. Hod, Glory, Mercury, These are passive in the nature of Hod, these can give direction or burden in their element.",
                "hebrew_name": "Exhaustion, loss of heart, stagnation, soullessness, depression. Temporary success, but without further results.",
                "roman": ""
            },
            {
                "number": 5,
                "name": "Five of Disks",
                "lord": "Earth is considered passive, feminine, solid, physical, stable, slow-moving, and grounded.",
                "rune": "",
                "element_name": "Earth",
                "stone": "",
                "sign_name": "Taurus",
                "decan_name": "Mercury",
                "astro": "",
                "divination": "Intense strain with continued inaction, loss of money, profession, monetary anxiety, poverty. Well dignified: Labor, land cultivation, building, intelligence applied to labor.",
                "seph_number": "5. Geburah, Strength, Severity, Mars, within the domain of the element of the suit.",
                "hebrew_name": "Intelligence required to resolve material problems. Anxiety about material things. Labor, toil, land cultivation; building.",
                "roman": ""
            },
            {
                "number": 4,
                "name": "Four of Disks",
                "lord": "Earth is considered passive, feminine, solid, physical, stable, slow-moving, and grounded.",
                "rune": "",
                "element_name": "Earth",
                "stone": "",
                "sign_name": "Capricorn",
                "decan_name": "Sun",
                "astro": "",
                "divination": "Law and order, gain of money and influences, earthly power but nothing beyond, success, rank, dominion, skill in direction of physical forces. Ill dignified: Prejudice, covetousness, suspicion, lack of originality.",
                "seph_number": "4. Chesed, Mercy, Jupiter, signifying perfection, realization, and completion making a matter settled.",
                "hebrew_name": "Assured material gain: success, rank, dominion, earthly power, paternal power; completed, but leading to nothing beyond. Vigilant authority.",
                "roman": ""
            },
            {
                "number": 0,
                "name": "Prince of Cups",
                "lord": "The Price of the Chariot of the Waters.",
                "rune": "",
                "element_name": "Water is considered passive, feminine, receptive, sustaining, subconscious, creative, fluidic, and generative. ",
                "stone": "",
                "sign_name": "",
                "decan_name": "",
                "astro": "",
                "divination": "Represents the airy part of water. A young man whose characteristics are subtlety, secret, violence, and craft; and artist whose come surface masks intense passion, caring intensely for power and wisdom, ruthless in his own aims. Ill dignified: Intensely evil and merciless man with overweening ambition.",
                "seph_number": "6. Tipereth, Beauty, the Sun, These show the mark of beauty within the domain of the suit.",
                "hebrew_name": "He rules from 20° Libra to 20° Scorpio. His chief astrological correspondence is to the masculine, positive, aggressive,and LOSS OF PLEASURE (or DISAPPOINTMENT):",
                "roman": ""
            },
            {
                "number": 0,
                "name": "Princess of Cups",
                "lord": "The Princess of the Waters: the Lotus of the Palace of the Floods.",
                "rune": "",
                "element_name": "Water is considered passive, feminine, receptive, sustaining, subconscious, creative, fluidic, and generative. ",
                "stone": "",
                "sign_name": "",
                "decan_name": "",
                "astro": "",
                "divination": "Represents the earthy part of water. A young woman infinitely gracious, all sweetness, voluptuousness, gentleness, kindness, romantic and dreaming. Ill dignified: Indolent, selfish and luxurious woman.",
                "seph_number": "10. Malkuth, Kingdom, the Earth or field, representing the fixed, culminated, or completed force of the element of the suit.",
                "hebrew_name": "She rules that quadrant of the heavens about the North Ecliptical Pole reaching from 0° Libra to 30° Saggitarius, centered on the Watery Kerubic constellation Scorpio.",
                "roman": ""
            },
            {
                "number": 10,
                "name": "Ten of Cups",
                "lord": "Water is considered passive, feminine, receptive, sustaining, subconscious, creative, fluidic, and generative.",
                "rune": "",
                "element_name": "Water is considered passive, feminine, receptive, sustaining, subconscious, creative, fluidic, and generative. ",
                "stone": "",
                "sign_name": "Pisces",
                "decan_name": "Mars",
                "astro": "",
                "divination": "Pursuit of pleasure crowned with perfect success but incomplete, matter arranged and settled as wished, last success, peacemaking and generosity. Ill dignified: Dissipation, debauchery, pity, waste, and stagnation.",
                "seph_number": "10. Malkuth, Kingdom, the Earth or field, representing the fixed, culminated, or completed force of the element of the suit.",
                "hebrew_name": "Permanent and lasting success and happiness, because inspired from above. Not so sensual as the “Happiness”",
                "roman": ""
            },
            {
                "number": 2,
                "name": "Ace of Swords",
                "lord": "The Root of the Powers of Air",
                "rune": "",
                "element_name": "Air is considered active, masculine, intellectual, ethereal, abstract and communicative. ",
                "stone": "",
                "sign_name": "",
                "decan_name": "",
                "astro": "",
                "divination": "Root powers of air. Invoked force, represents great power for good or evil but invoked. Conquest, whirling force, activity, strength through trouble, as affirmation of justice upholding divine authority may become sword of wrath, punishment and affliction.",
                "seph_number": "1. Kether, Crown, the Seed or Root; represents the root of the forces of the four elements.",
                "hebrew_name": "",
                "roman": ""
            },
            {
                "number": 0,
                "name": "Knight of Cups",
                "lord": "The Lord of the Waves of the Waters: the King of the Hosts of the Sea.",
                "rune": "",
                "element_name": "Water is considered passive, feminine, receptive, sustaining, subconscious, creative, fluidic, and generative. ",
                "stone": "",
                "sign_name": "",
                "decan_name": "",
                "astro": "",
                "divination": "Represents the fiery part of water. A man who is graceful dilettante, amiable in a passive way, quick to respond to attraction and easily enthusiastic, exceedingly sensitive but with little depth of character. Ill dignified: Sensual and idle man, untruthful, prone to melancholy and drug abuse.",
                "seph_number": "2. Chokmah, Wisdom, the Zodiac, the Father, in practice shows polarity or seeming division.",
                "hebrew_name": "He rules the heavens from 20° Aquarius to 20° Pisces  His two watery decanates are called INDOLENCE and HAPPINESS.",
                "roman": ""
            },
            {
                "number": 0,
                "name": "Queen of Cups",
                "lord": "The Queen of the Thrones of the Waters.",
                "rune": "",
                "element_name": "Water is considered passive, feminine, receptive, sustaining, subconscious, creative, fluidic, and generative. ",
                "stone": "",
                "sign_name": "",
                "decan_name": "",
                "astro": "",
                "divination": "Represents the watery part of water. A woman who reflects the nature of the observer, dreamy, tranquil, poetic, imaginative, kind yet not willing to take much trouble for another. She is much affected by surrounding influences, therefore more dependent than most other cards on good or ill dignity.",
                "seph_number": "3. Binah, Understanding, Saturn, the Mother, the original idea of the element has become fertilized and formed a triangle to allow the birth of the Child.",
                "hebrew_name": "She rules the heavens from 20° Gemini to 20° Pisces. Her strongest astrological relationship is to the first two decanates of Pisces.",
                "roman": ""
            },
            {
                "number": 4,
                "name": "Four of Swords",
                "lord": "Air is considered active, masculine, intellectual, ethereal, abstract and communicative. ",
                "rune": "",
                "element_name": "Air is considered active, masculine, intellectual, ethereal, abstract and communicative. ",
                "stone": "",
                "sign_name": "Libra",
                "decan_name": "Jupiter",
                "astro": "",
                "divination": "Rest from sorrow, peace after war, relaxation of anxiety, refuge from mental chaos, recovery from sickness, change for the better after struggle, authority in the intellectual world, convention, establishment of dogma.",
                "seph_number": "4. Chesed, Mercy, Jupiter, signifying perfection, realization, and completion making a matter settled.",
                "hebrew_name": "Rest from strife; yet after it and through it. Peace from and after strife; resolution of conflicts, bestowing calm; a sense of justice.",
                "roman": ""
            },
            {
                "number": 3,
                "name": "Three of Swords",
                "lord": "Air is considered active, masculine, intellectual, ethereal, abstract and communicative. ",
                "rune": "",
                "element_name": "Air is considered active, masculine, intellectual, ethereal, abstract and communicative. ",
                "stone": "",
                "sign_name": "Libra",
                "decan_name": "Saturn",
                "astro": "",
                "divination": "Melancholy, unhappiness, tears, disruption, sowing of discord and strife, delay, absence, separation, mirth in forbidden pleasures, deceit. Well dignified: singing, faithfulness in promises honesty in money transactions.",
                "seph_number": "3. Binah, Understanding, Saturn, the Mother, the original idea of the element has become fertilized and formed a triangle to allow the birth of the Child.",
                "hebrew_name": "Disruption, interruption, separation, discontent, quarreling; sowing of discord and strife, mischief-making, sorrow and tears;",
                "roman": ""
            },
            {
                "number": 2,
                "name": "Two of Swords",
                "lord": "Air is considered active, masculine, intellectual, ethereal, abstract and communicative. ",
                "rune": "",
                "element_name": "Air is considered active, masculine, intellectual, ethereal, abstract and communicative. ",
                "stone": "",
                "sign_name": "Libra",
                "decan_name": "Moon",
                "astro": "",
                "divination": "Contradictory characteristics in same nature, sacrifice and trouble giving birth to strength, quarrel made up and peace restored, yet tension remaining, pleasure after pain, truth and untruth indecision, actions sometimes selfish, sometimes unselfish.",
                "seph_number": "2. Chokmah, Wisdom, the Zodiac, the Father, in practice shows polarity or seeming division.",
                "hebrew_name": "Compromise, cooperation, friendship. Peace restored; truce; justice. Strength arising from difficulties and hardship.",
                "roman": ""
            },
            {
                "number": 7,
                "name": "Seven of Swords",
                "lord": "Air is considered active, masculine, intellectual, ethereal, abstract and communicative. ",
                "rune": "",
                "element_name": "Air is considered active, masculine, intellectual, ethereal, abstract and communicative. ",
                "stone": "",
                "sign_name": "Aquarius",
                "decan_name": "Moon",
                "astro": "",
                "divination": "Unstable effort, vacillation, vain striving against opposition too powerful, partial success by giving up on the brink of winning through lack of energy, fascination with display, journey by land, untrustworthy person.",
                "seph_number": "7. Netzach, Victory, Venus, each of these describes what is required within its respective element.",
                "hebrew_name": "Loss of energy, diffusion, uncertainty, doubt, vacillation, unstable effort. Unreliable, mentally distracted.",
                "roman": ""
            },
            {
                "number": 6,
                "name": "Six of Swords",
                "lord": "Air is considered active, masculine, intellectual, ethereal, abstract and communicative. ",
                "rune": "",
                "element_name": "Air is considered active, masculine, intellectual, ethereal, abstract and communicative. ",
                "stone": "",
                "sign_name": "Aquarius",
                "decan_name": "Mercury",
                "astro": "",
                "divination": "Intelligence that has realized its goal, labor, work, success after anxiety, passage from difficulty, journey by water, Ill dignified: Selfishness, conceit, intellectual pride.",
                "seph_number": "6. Tipereth, Beauty, the Sun, These show the mark of beauty within the domain of the suit.",
                "hebrew_name": "Intelligence and humanity prevail. Inventive, creative, and progressive thinking.",
                "roman": ""
            },
            {
                "number": 5,
                "name": "Five of Swords",
                "lord": "Air is considered active, masculine, intellectual, ethereal, abstract and communicative. ",
                "rune": "",
                "element_name": "Air is considered active, masculine, intellectual, ethereal, abstract and communicative. ",
                "stone": "",
                "sign_name": "Aquarius",
                "decan_name": "Venus",
                "astro": "",
                "divination": "Loss, malice, spite, weakness, slander, failure, anxiety, poverty, dishonor, trouble, grieving after pain, ties, separator of friends, busybody, cruel yet cowardly, evil speaking.",
                "seph_number": "5. Geburah, Strength, Severity, Mars, within the domain of the element of the suit.",
                "hebrew_name": "Failure, defeat. Intellect weakened by sentiment. Loss of competitive edge.",
                "roman": ""
            },
            {
                "number": 10,
                "name": "Ten of Swords",
                "lord": "Air is considered active, masculine, intellectual, ethereal, abstract and communicative. ",
                "rune": "",
                "element_name": "Air is considered active, masculine, intellectual, ethereal, abstract and communicative. ",
                "stone": "",
                "sign_name": "Gemini",
                "decan_name": "Sun",
                "astro": "",
                "divination": "Reason divorced from reality, death, failure, disaster yet not entirely without hope, disruption, idle chatter, clever, eloquent and insolent person, impertinent yet with mirth, spiritually, may herald the end of delusion.",
                "seph_number": "10. Malkuth, Kingdom, the Earth or field, representing the fixed, culminated, or completed force of the element of the suit.",
                "hebrew_name": "Undisciplined, warring forces, complete failure. Disruption, disorder, and dispersal of the Sun’s harmonious and stable energy;",
                "roman": ""
            },
            {
                "number": 9,
                "name": "Nine of Swords",
                "lord": "Air is considered active, masculine, intellectual, ethereal, abstract and communicative. ",
                "rune": "",
                "element_name": "Air is considered active, masculine, intellectual, ethereal, abstract and communicative. ",
                "stone": "",
                "sign_name": "Gemini",
                "decan_name": "Mars",
                "astro": "",
                "divination": "Agony of mind, despair, hopelessness, worry, suffering, loss, illness, malice, pain, burden, oppression, subtlety and craft, lying, shame. Well dignified: Obedience, faithfulness, patience, unselfishness.",
                "seph_number": "9. Yesod, Foundation, the Moon, these show the fullest practical formulation of the element that precedes it.",
                "hebrew_name": "Despair, cruelty, pitilessness, malice, argument, rage, revenge, suffering, worry, anxiety, loss, misery.",
                "roman": ""
            },
            {
                "number": 8,
                "name": "Eight of Swords",
                "lord": "Air is considered active, masculine, intellectual, ethereal, abstract and communicative. ",
                "rune": "",
                "element_name": "Air is considered active, masculine, intellectual, ethereal, abstract and communicative. ",
                "stone": "",
                "sign_name": "Gemini",
                "decan_name": "Jupiter",
                "astro": "",
                "divination": "Waste of energy in details causing neglect of more important things, lack of persistence, sheer unforeseen bad luck, restriction, great care in some things counterbalanced by equal disorder in others.",
                "seph_number": "8. Hod, Glory, Mercury, These are passive in the nature of Hod, these can give direction or burden in their element.",
                "hebrew_name": "Too much force applied to small things; attention wasted on detail, at the expense of the principal and more important points; obfuscation.",
                "roman": ""
            },
            {
                "number": 0,
                "name": "Queen of Swords",
                "lord": "The Queen of the Thrones of Air.",
                "rune": "",
                "element_name": "Air is considered active, masculine, intellectual, ethereal, abstract and communicative. ",
                "stone": "",
                "sign_name": "",
                "decan_name": "",
                "astro": "",
                "divination": "Represents the watery part of air. A graceful woman, intensely perceptive, a keen observer, subtle interpreter, an intense individualist, confident, gracious and just. Ill dignified: Cruel, sly, deceitful, and unreliable woman. Superficial attractiveness makes her all the more dangerous.",
                "seph_number": "3. Binah, Understanding, Saturn, the Mother, the original idea of the element has become fertilized and formed a triangle to allow the birth of the Child.",
                "hebrew_name": "She rules from 20° Virgo to 20° Libra. It reflects her primary loss, and the grief and bereavement thereof. She also corresponds to the first decanate, ruled by the Moon and titled PEACE.",
                "roman": ""
            },
            {
                "number": 0,
                "name": "Prince of Swords",
                "lord": "The Prince of the Chariot of the Winds",
                "rune": "",
                "element_name": "Air is considered active, masculine, intellectual, ethereal, abstract and communicative. ",
                "stone": "",
                "sign_name": "",
                "decan_name": "",
                "astro": "",
                "divination": "Represents the airy part of air. A young man, purely intellectual, full of ideas and designs, domineering, intensely clever but unstable of purpose, with an elusive and elastic mind supporting various and contradictory opinions. He slays as fast as he creates. Ill dignified: Harsh, malicious, plotting, unreliable man, a fanatic.",
                "seph_number": "6. Tipereth, Beauty, the Sun, These show the mark of beauty within the domain of the suit.",
                "hebrew_name": "He rules from 20° Capricorn to 20° Aquarius, corresponding to the first two decanates of Aquarius. The first is ruled by Venus. Venus with Aquarius is a humane and humanitarian combination of high social idealism.",
                "roman": ""
            },
            {
                "number": 0,
                "name": "Princess of Swords",
                "lord": "The Princess of the Rushing Winds: the Lotus of the Palace of Air.",
                "rune": "",
                "element_name": "Air is considered active, masculine, intellectual, ethereal, abstract and communicative. ",
                "stone": "",
                "sign_name": "",
                "decan_name": "",
                "astro": "",
                "divination": "Represents the earthy part of air, A young woman, stern and revengeful, with destructive logic, firm and aggressive, with great practical wisdom and subtlety, dexterous in management of practical affairs. Ill dignified: A woman filled with low cunning and frivolousness.",
                "seph_number": "10. Malkuth, Kingdom, the Earth or field, representing the fixed, culminated, or completed force of the element of the suit.",
                "hebrew_name": "She rules that quadrant of the heavens about the North Ecliptical Pole reaching from 0° Capricorn to 30° Pisces, centered on the Airy Kerubic constellation Aquarius,",
                "roman": ""
            },
            {
                "number": 1,
                "name": "Ace of Wands",
                "lord": "The Root of the Powers of Fire",
                "rune": "",
                "element_name": "Fire",
                "stone": "",
                "sign_name": "",
                "decan_name": "",
                "astro": "",
                "divination": "Root of fire. Energy, strength, force, solar-phallic outburst of flame. Vigor, natural force as opposed to invoked force.",
                "seph_number": "1. Kether, Crown, the Seed or Root; represents the root of the forces of the four elements.",
                "hebrew_name": "",
                "roman": ""
            },
            {
                "number": 0,
                "name": "Knight of Swords",
                "lord": "The Lord of the Winds & the Breeze: the King of the Spirits of the Air.",
                "rune": "",
                "element_name": "Air is considered active, masculine, intellectual, ethereal, abstract and communicative. ",
                "stone": "",
                "sign_name": "",
                "decan_name": "",
                "astro": "",
                "divination": "Represents the fiery part of air. A man active, skillful and clever, fierce, delicate, and courageous but often unreflective. Ill dignified: A man incapable of decision, deceitful, tyrannical, and crafty.",
                "seph_number": "2. Chokmah, Wisdom, the Zodiac, the Father, in practice shows polarity or seeming division.",
                "hebrew_name": "He rules the heavens from 20° Taurus to 20° Gemini.The Knight corresponds to the first two decanates of Gemini, and called INTERFERENCE (or SHORTENED FORCE)",
                "roman": ""
            },
            {
                "number": 3,
                "name": "Three of Wands",
                "lord": "Fire is considered active, masculine, spontaneous, quick, initiating, vitalizing, and energetic.",
                "rune": "",
                "element_name": "Fire",
                "stone": "",
                "sign_name": "Libra",
                "decan_name": "Saturn",
                "astro": "",
                "divination": "Established strength, success after struggle, pride and arrogance, realization of hope, nobility. Ill dignified: Conceit.",
                "seph_number": "3. Binah, Understanding, Saturn, the Mother, the original idea of the element has become fertilized and formed a triangle to allow the birth of the Child.",
                "hebrew_name": "Leadership, enthusiasm, courage. Formulation, birthing. Pride, nobility, wealth.",
                "roman": ""
            },
            {
                "number": 2,
                "name": "Two of Wands",
                "lord": "Fire is considered active, masculine, spontaneous, quick, initiating, vitalizing, and energetic.",
                "rune": "",
                "element_name": "Fire",
                "stone": "",
                "sign_name": "Aries",
                "decan_name": "",
                "astro": "",
                "divination": "Energy initiating a current of force. Harmony of rule and justice. Influence over another. Boldness, courage, fierceness. Ill dignified: Restlessness, turbulence, obstinacy.",
                "seph_number": "2. Chokmah, Wisdom, the Zodiac, the Father, in practice shows polarity or seeming division.",
                "hebrew_name": "Strength, domination. Boldness, courage, love of freedom, fierceness, fighting spirit.",
                "roman": ""
            },
            {
                "number": 6,
                "name": "Six of Wands",
                "lord": "Fire is considered active, masculine, spontaneous, quick, initiating, vitalizing, and energetic.",
                "rune": "",
                "element_name": "Fire",
                "stone": "",
                "sign_name": "Leo",
                "decan_name": "Jupiter",
                "astro": "",
                "divination": "Energy in balanced manifestation, love, gain and success, triumph after strife. Ill dignified: Insolence and pride.",
                "seph_number": "6. Tipereth, Beauty, the Sun, These show the mark of beauty within the domain of the suit.",
                "hebrew_name": "Victory after strife; love; joy; gain; pleasure earned; carefulness,or vanity, self-admiration, pride of riches.",
                "roman": ""
            },
            {
                "number": 5,
                "name": "Five of Wands",
                "lord": "Fire is considered active, masculine, spontaneous, quick, initiating, vitalizing, and energetic.",
                "rune": "",
                "element_name": "Fire",
                "stone": "",
                "sign_name": "Leo",
                "decan_name": "Saturn",
                "astro": "",
                "divination": "<b>Strife:</b></br />Quarreling, fighting, competition, cruelty, violence, lust and desire. May be prodigality or generosity according to dignity.",
                "seph_number": "5. Geburah, Strength, Severity, Mars, within the domain of the element of the suit.",
                "hebrew_name": "Condescension or generosity depending on whether the card is well or ill-dignified.",
                "roman": ""
            },
            {
                "number": 4,
                "name": "Four of Wands",
                "lord": "Fire is considered active, masculine, spontaneous, quick, initiating, vitalizing, and energetic.",
                "rune": "",
                "element_name": "Fire",
                "stone": "",
                "sign_name": "Aries",
                "decan_name": "Venus",
                "astro": "",
                "divination": "Perfected work, settlement, completion after much labor, rest, subtlety, cleverness, conclusions from previous knowledge, Ill dignified: Unreliability from over anxiousness and hurriedness of action.",
                "seph_number": "4. Chesed, Mercy, Jupiter, signifying perfection, realization, and completion making a matter settled.",
                "hebrew_name": "Subtlety, cleverness, beauty, mirth; Unfolding or maturation of creative powers.",
                "roman": ""
            },
            {
                "number": 8,
                "name": "Eight of Wands",
                "lord": "Fire is considered active, masculine, spontaneous, quick, initiating, vitalizing, and energetic.",
                "rune": "",
                "element_name": "Fire",
                "stone": "",
                "sign_name": "Sagittarius",
                "decan_name": "Mercury",
                "astro": "",
                "divination": "Speech, light, electricity, energy of high velocity, activity, approach to goal, letter o message, rapidity, boldness, freedom. Ill dignified: Too much force applied to suddenly. A flash in the pan.",
                "seph_number": "8. Hod, Glory, Mercury, These are passive in the nature of Hod, these can give direction or burden in their element.",
                "hebrew_name": "Very rapid rush, but quickly passed and expended. Too much force applied too suddenly. Violent, intense, but not lasting.",
                "roman": ""
            },
            {
                "number": 7,
                "name": "Seven of Wands",
                "lord": "Fire is considered active, masculine, spontaneous, quick, initiating, vitalizing, and energetic.",
                "rune": "",
                "element_name": "Fire",
                "stone": "",
                "sign_name": "Leo",
                "decan_name": "Mars",
                "astro": "",
                "divination": "Energy feels itself at last grasp, struggles, possible victory, obstacles, and difficulties yet courage to meet them. Victory in small things. Ill dignified: Quarreling.",
                "seph_number": "7. Netzach, Victory, Venus, each of these describes what is required within its respective element.",
                "hebrew_name": "Valor, zeal, passion; opposition, obstacles, Also, victory in small and unimportant things; influence upon subordinates.",
                "roman": ""
            },
            {
                "number": 10,
                "name": "Ten of Wands",
                "lord": "Fire is considered active, masculine, spontaneous, quick, initiating, vitalizing, and energetic.",
                "rune": "",
                "element_name": "Fire",
                "stone": "",
                "sign_name": "Sagittarius",
                "decan_name": "Saturn",
                "astro": "",
                "divination": "Force detached from spiritual sources, fire in its most destructive aspect, cruelty and malice, selfishness and lying, repression, slander, and ill will. Can be self-sacrificing and generosity if particularly well dignified.",
                "seph_number": "10. Malkuth, Kingdom, the Earth or field, representing the fixed, culminated, or completed force of the element of the suit.",
                "hebrew_name": "Cruel and callous power applied to material and selfish ends. Tyranny, oppression, repression.",
                "roman": ""
            },
            {
                "number": 9,
                "name": "Nine of Wands",
                "lord": "Fire is considered active, masculine, spontaneous, quick, initiating, vitalizing, and energetic.",
                "rune": "",
                "element_name": "Fire",
                "stone": "",
                "sign_name": "Sagittarius",
                "decan_name": "Moon",
                "astro": "",
                "divination": "Power, heath, success after opposition and strife, tremendous force, recovery from sickness, victory after apprehension and fear, Illustrates the aphorism that \"Change is stability.\"",
                "seph_number": "9. Yesod, Foundation, the Moon, these show the fullest practical formulation of the element that precedes it.",
                "hebrew_name": "Mobility, adaptability, stability through ongoing change. Tremendous and steady force that cannot be shaken.",
                "roman": ""
            },
            {
                "number": 10,
                "name": "Prince of Wands",
                "lord": "The Prince of the Chariot of Fire.",
                "rune": "",
                "element_name": "Fire",
                "stone": "",
                "sign_name": "",
                "decan_name": "",
                "astro": "",
                "divination": "Represents the airy part of fire. A young man swift and strong, impulsive, violent, just, noble, and generous with a sense of humor. Ill dignified: Proud, intolerant, cruel, and prejudiced youth who may be a coward.",
                "seph_number": "6. Tipereth, Beauty, the Sun, These show the mark of beauty within the domain of the suit.",
                "hebrew_name": "He rules the heavens from 20° Pisces to 20° Leo; hence, he includes most of the constellation Leo Minor. The first two decanates of Leo are ruled by Saturn and Jupiter/STRIFE and VICTORY.",
                "roman": ""
            },
            {
                "number": 10,
                "name": "Princess of Wands",
                "lord": "The Princess of the Shining Flame: the Rose of the Palace of Fire.",
                "rune": "",
                "element_name": "Fire",
                "stone": "",
                "sign_name": "",
                "decan_name": "",
                "astro": "",
                "divination": "Represents the earthy part of fire. A young woman individualistic, brilliant and daring with a great energy, sudden and violent in love or anger, enthusiastic. Ill dignified: Superficial, theatrical, shallow, false, cruel, unreliable, faithless, domineering woman.",
                "seph_number": "10. Malkuth, Kingdom, the Earth or field, representing the fixed, culminated, or completed force of the element of the suit.",
                "hebrew_name": "She rules that quadrant of the heavens about the North Ecliptical Pole reaching from 0° Pisces to 30° Virgo, centered on the Fiery Kerubic constellation Leo.",
                "roman": ""
            },
            {
                "number": 10,
                "name": "Knight of Wands",
                "lord": "The Lord of the Flame & Lightning: the King of the Spirits of Fire.",
                "rune": "",
                "element_name": "Fire",
                "stone": "",
                "sign_name": "",
                "decan_name": "",
                "astro": "",
                "divination": "Represents the fiery part of fire. A man with the qualities of activity, generosity, impetuosity, pride, and swiftness. Ill dignified: An evil-minded, cruel, bigoted, and brutal man.",
                "seph_number": "2. Chokmah, Wisdom, the Zodiac, the Father, in practice shows polarity or seeming division.",
                "hebrew_name": "He rules the celestial sphere from 20° Scorpio  to 20° Sagittarius. The fiery decanates to which he corresponds confirm that his nature is SWIFTNESS and STRENGTH.",
                "roman": ""
            },
            {
                "number": 10,
                "name": "Queen of Wands",
                "lord": "The Queen of the Thrones of Flame.",
                "rune": "",
                "element_name": "Fire",
                "stone": "",
                "sign_name": "",
                "decan_name": "",
                "astro": "",
                "divination": "Represents the water part of fire. A woman of adaptability, persistent energy, calm authority, with great power to attract, generous but impatient of opposition. Ill dignified: A woman who is stupid, obstinate, revengeful, domineering, quick to take offense without good cause.",
                "seph_number": "3. Binah, Understanding, Saturn, the Mother, the original idea of the element has become fertilized and formed a triangle to allow the birth of the Child.",
                "hebrew_name": "She rules the heavens from 20° Pices to 20° Aries. From the fiery decanates we derive the titles DOMINION Mars/Aries and VIRTUE or ESTABLISHED STRENGTH.",
                "roman": ""
            },
            {
                "number": 21,
                "name": "The Universe",
                "lord": "Earth is considered passive, feminine, solid, physical, stable, slow-moving, and grounded.",
                "rune": "Wunjo",
                "element_name": "Earth",
                "stone": "Aquamarine",
                "sign_name": "",
                "decan_name": "Saturn",
                "astro": "Galatic Centre",
                "divination": "The essence of the question itself, synthesis, the end of the matter, delay, opposition, inertia perseverance, patience, the crystallization of the whole matter involved.",
                "seph_number": "32. Malkuth to Yesod. Links ‘the Kingdom’ and ‘the Foundation’; or ‘Physical Embodiment’ with ‘Subconsciousness.",
                "hebrew_name": "Tav, a sign, mark, or cross: Both an elemental cross showing the occupation of the Elemental Kingdom.",
                "roman": "XXI"
            },
            {
                "number": 0,
                "name": "The Fool",
                "lord": "",
                "rune": "Mannaz",
                "element_name": "",
                "stone": "Clear Quartz",
                "sign_name": "",
                "decan_name": "",
                "astro": "Andromeda",
                "divination": "In spiritual matters, represents ideas, thoughts, spirituality, that which endeavors to transcend earth. In material matters may represent the original subtle sudden impulse coming from a strange and unexpected quarter.",
                "seph_number": "11. Chokmah to Kether. Links ‘Wisdom’ and ‘the Crown’; or Infinite Will with Unconditional Being,",
                "hebrew_name": "Aleph “to learn.” is the sound of free breath, silent, unstructured,unconditioned.",
                "roman": "0"
            },
            {
                "number": 20,
                "name": "The Aeon",
                "lord": "Water is considered passive, feminine, receptive, sustaining, subconscious, creative, fluidic, and generative.",
                "rune": "Kano",
                "element_name": "Water is considered passive, feminine, receptive, sustaining, subconscious, creative, fluidic, and generative. ",
                "stone": "Hawk’s Eye",
                "sign_name": "",
                "decan_name": "",
                "astro": "Orion",
                "divination": "Final decision concerning the past, new current for the future, always represents taking a definite step.",
                "seph_number": "31. Malkuth to Hod. Links ‘the Kingdom’ and ‘Glory’; or ‘Physical Embodiment’ with ‘Intellect.",
                "hebrew_name": "Shin, tooth. Something that penetrates, rends, shreds, or breaks down.",
                "roman": "XX"
            },
            {
                "number": 19,
                "name": "The Sun",
                "lord": "Fire is considered active, masculine, spontaneous, quick, initiating, vitalizing, and energetic.",
                "rune": "Sowelu",
                "element_name": "Fire",
                "stone": "Amber",
                "sign_name": "",
                "decan_name": "Sun",
                "astro": "Shemesh",
                "divination": "Glory, gain, riches, triumph, pleasure, frankness, truth, shamelessness, manifestation, recovery from sickness, sometimes sudden death. Ill dignified: Arrogance, vanity.",
                "seph_number": "30. Yesod to Hod. Links ‘the Foundation’ and ‘Glory’; or Intellect with Subconsciousness.",
                "hebrew_name": "Resh, head (especially the front of the head, or face). The Divine Countenance anthropomorphized onto the Sun.",
                "roman": "XIX"
            },
            {
                "number": 18,
                "name": "The Moon",
                "lord": "Water is considered passive, feminine, receptive, sustaining, subconscious, creative, fluidic, and generative.",
                "rune": "Isa",
                "element_name": "Water is considered passive, feminine, receptive, sustaining, subconscious, creative, fluidic, and generative. ",
                "stone": "Moonstone",
                "sign_name": "Pisces",
                "decan_name": "",
                "astro": "Alpha Centauri",
                "divination": "Illusion, deception, bewilderment, hysteria, madness, dreaminess, falsehood, voluntary change, brink of change, dignity.",
                "seph_number": "29. Malkuth to Netzach. Links ‘the Kingdom’ and ‘Victory’; or ‘Physical Embodiment’with ‘Desire.",
                "hebrew_name": "Qoph, back of the head, where brain functions are situated associated with sleep and autonomic functions.",
                "roman": "XVIII"
            },
            {
                "number": 17,
                "name": "The Star",
                "lord": "Air is considered active, masculine, intellectual, ethereal, abstract and communicative. ",
                "rune": "Tiewaz",
                "element_name": "Air is considered active, masculine, intellectual, ethereal, abstract and communicative. ",
                "stone": "Citrine",
                "sign_name": "Aquarius",
                "decan_name": "",
                "astro": "Cygnus",
                "divination": "Hope, unexpected help, charity of vision, spiritual insight. Ill dignified: Error of judgment, dreaminess, disappointment.",
                "seph_number": "15. Tiphereth to Chokmah. Links ‘Beauty’ and ‘Wisdom’; or the Ego-center and Infinite Will; or ‘the Son’ and ‘the Father.’",
                "hebrew_name": "Heh, window. An aperture for allowing Light and Air into the house (b) and for permitting sight.",
                "roman": "XVII"
            },
            {
                "number": 16,
                "name": "The Tower",
                "lord": "Fire is considered active, masculine, spontaneous, quick, initiating, vitalizing, and energetic.",
                "rune": "Hagalaz",
                "element_name": "Fire",
                "stone": "Leopardskin Jasper",
                "sign_name": "",
                "decan_name": "Mars",
                "astro": "Aldebaron",
                "divination": "Quarrel, combat, danger, ruin, destruction of plans, sudden death, escape from prison.",
                "seph_number": "27. Hod to Netzach. Links ‘Glory’ and ‘Victory’; or Intellect with Desire.",
                "hebrew_name": "Peh, mouth, especially as an organ of speech.",
                "roman": "XVI"
            },
            {
                "number": 15,
                "name": "The Devil",
                "lord": "Earth is considered passive, feminine, solid, physical, stable, slow-moving, and grounded.",
                "rune": "Nauthiz",
                "element_name": "Earth",
                "stone": "Red Jasper",
                "sign_name": "Capricorn",
                "decan_name": "",
                "astro": "Antares",
                "divination": "Blind impulse. Irresistibly strong & unscrupulous person. Ambition. Temptation. Obsession. Secret plan about to be executed. Hard work. Endurance. Aching discontent. Materialism. Fate.",
                "seph_number": "26. Hod to Tiphereth. Links ‘Glory’ and ‘Beauty’; or Intellect with the Ego-center.",
                "hebrew_name": "A’ayin, eye, the organ of sight. Also means “appearances,” especially surface appearances.",
                "roman": "XV"
            },
            {
                "number": 14,
                "name": "Art",
                "lord": "Fire is considered active, masculine, spontaneous, quick, initiating, vitalizing, and energetic.",
                "rune": "Raido",
                "element_name": "Fire",
                "stone": "Blue Lace Agate",
                "sign_name": "Sagittarius",
                "decan_name": "",
                "astro": "Eridanus",
                "divination": "Combination of forces. Realization. Action based on accurate calculation. Economy. Management. Success after elaborate maneuvers. The way of escape.",
                "seph_number": "25. Yesod to Tiphereth. Links ‘the Foundation’ and ‘Beauty,’ Moon and Sun; or Subconsciousness with the Ego-center.",
                "hebrew_name": "Samekh, prop, support: something that lifts up, or holds up, something else.",
                "roman": "XIV"
            },
            {
                "number": 13,
                "name": "Death",
                "lord": "Water is considered passive, feminine, receptive, sustaining, subconscious, creative, fluidic, and generative.",
                "rune": "Dagaz",
                "element_name": "Water is considered passive, feminine, receptive, sustaining, subconscious, creative, fluidic, and generative. ",
                "stone": "Obsidian",
                "sign_name": "Scorpio",
                "decan_name": "",
                "astro": "Ophiuchus",
                "divination": "Transformation. Change, voluntary or not, perhaps sudden & unexpected. Apparent death or destruction that is illusory when viewed from a higher perspective.",
                "seph_number": "24. Netzach to Tiphereth. Links ‘Victory’ and ‘Beauty’; or Desire and the Ego-center.",
                "hebrew_name": "Nun, fish. That which thrives in water and cannot live long breathing air intellect.",
                "roman": "XIII"
            },
            {
                "number": 12,
                "name": "The Hanged Man",
                "lord": "Water is considered passive, feminine, receptive, sustaining, subconscious, creative, fluidic, and generative.",
                "rune": "Perth",
                "element_name": "Water is considered passive, feminine, receptive, sustaining, subconscious, creative, fluidic, and generative. ",
                "stone": "Bloodstone",
                "sign_name": "",
                "decan_name": "",
                "astro": "Southern Cross",
                "divination": "Redemption through sacrifice. Enforced sacrifice. Suffering. Ill-dignified: Punishment. Loss. Defeat. Failure. Death.",
                "seph_number": "23. Hod to Geburah. Links ‘Glory’ and ‘Strength’; or Intellect and Volition.",
                "hebrew_name": "Mem, water, the universal symbol of consciousness per se, including “matter” and the subtler “matrix” of manifestation.",
                "roman": "XII"
            },
            {
                "number": 11,
                "name": "Adjustment",
                "lord": "Air is considered active, masculine, intellectual, ethereal, abstract and communicative. ",
                "rune": "Eihwaz",
                "element_name": "Air is considered active, masculine, intellectual, ethereal, abstract and communicative. ",
                "stone": "Banded Agate",
                "sign_name": "Libra",
                "decan_name": "",
                "astro": "Vega",
                "divination": "Justice on a cosmic scale, not necessarily to the seeker's liking or to any human's understanding; in that respect, it's more of a balance than a justice. Suspension of acting pending decision. May refer to lawsuits, trials, marriages, treaties, et cetera.",
                "seph_number": "22. Tiphereth to Geburah. Links ‘Beauty’ with ‘Strength,’ the Ego-center with Volition.",
                "hebrew_name": "Lamed, ox-goad: that which drives and steers the ox. Also means, “to instruct, train, discipline, chastise”",
                "roman": "XI"
            },
            {
                "number": 10,
                "name": "Fortune",
                "lord": "Fire is considered active, masculine, spontaneous, quick, initiating, vitalizing, and energetic.",
                "rune": "Inguz",
                "element_name": "Fire",
                "stone": "Cat’s Eye",
                "sign_name": "",
                "decan_name": "Jupiter",
                "astro": "Polaris",
                "divination": "Change of fortune at the whim of the cosmos. Loss of control over one's life. Destiny.",
                "seph_number": "21. Netzach to Chesed. Links ‘Victory’ and ‘Mercy’; or Desire with Memory.",
                "hebrew_name": "Kaph, palm. It means “hand,” particularly the palm or grasping aspect thereof; and, more generally, any curve or cycle,",
                "roman": "X"
            },
            {
                "number": 9,
                "name": "The Hermit",
                "lord": "Earth is considered passive, feminine, solid, physical, stable, slow-moving, and grounded.",
                "rune": "Jera",
                "element_name": "Earth",
                "stone": "Desert Rose",
                "sign_name": "Virgo",
                "decan_name": "",
                "astro": "Spica",
                "divination": "Illumination from within. Divine inspiration. Wisdom. Prudence. Circumspection. Retirement from participation in current events.",
                "seph_number": "20. Tiphereth to Chesed. Links ‘Beauty’ and ‘Mercy’; or the Ego-center with Memory.",
                "hebrew_name": "Yod, hand. Also, “power, strength, assistance,” ideas associated with hand. “Axle,” on which the Wheel turns.",
                "roman": "IX"
            },
            {
                "number": 8,
                "name": "Lust",
                "lord": "Fire is considered active, masculine, spontaneous, quick, initiating, vitalizing, and energetic.",
                "rune": "Uruz",
                "element_name": "Fire",
                "stone": "Malachite",
                "sign_name": "Leo",
                "decan_name": "",
                "astro": "Algenubi",
                "divination": "Courage. Strength. Energy. Use of magical power. Control of the life force. Great love affair. Resort to magic.",
                "seph_number": "19. Geburah to Chesed. Links ‘Strength’ and ‘Mercy’; or Volition and Memory. Mercy weds Severity.",
                "hebrew_name": "Teth, serpent; more literally, that which is coiled and resembles a serpent (“serpent power”). The alchemical “lion.”",
                "roman": "VIII"
            },
            {
                "number": 7,
                "name": "The Chariot",
                "lord": "Water is considered passive, feminine, receptive, sustaining, subconscious, creative, fluidic, and generative.",
                "rune": "Ehwaz",
                "element_name": "Water is considered passive, feminine, receptive, sustaining, subconscious, creative, fluidic, and generative. ",
                "stone": "Rutilated Quartz",
                "sign_name": "Cancer",
                "decan_name": "",
                "astro": "Mintaka",
                "divination": "Triumph. Victory. Hope. Obedience. Faithfulness. Health. Success, though sometimes not enduring. Authority under authority. Ill-dignified: Violence in maintaining traditional ideas. Lust of destruction.",
                "seph_number": "18. Geburah to Binah. Links ‘Strength’ with ‘Understanding’; or Volition opening to Intuition.",
                "hebrew_name": "Cheth, fence: that which defines a territory; or an enclosure, field; from Hebrew root meaning, “to surround or gird.\"",
                "roman": "VII"
            },
            {
                "number": 6,
                "name": "The Lovers",
                "lord": "Air is considered active, masculine, intellectual, ethereal, abstract and communicative. ",
                "rune": "Gebo",
                "element_name": "Air is considered active, masculine, intellectual, ethereal, abstract and communicative. ",
                "stone": "Rose Quartz",
                "sign_name": "Gemini",
                "decan_name": "",
                "astro": "Arcturus",
                "divination": "Openness to inspiration. Intuition. Intelligence. Childishness. Attraction. Beauty. Love. Ill-dignified: Self-contradiction. Instability. Indecision. Union in a shallow degree with others. Superficiality.",
                "seph_number": "17. Tiphereth to Binah. Links ‘Beauty’ and ‘Understanding’; or the Ego-center with Intuition, Ruach with Neshamah.",
                "hebrew_name": "Zayin, sword, symbolic of intellect and representative of division, multiplicity, severing, severity.",
                "roman": "VI"
            },
            {
                "number": 5,
                "name": "The Hierophant ",
                "lord": "Earth is considered passive, feminine, solid, physical, stable, slow-moving, and grounded.",
                "rune": "Berkana",
                "element_name": "Earth",
                "stone": "Lapis Lazuli",
                "sign_name": "Taurus",
                "decan_name": "",
                "astro": "Capella",
                "divination": "Divine wisdom. Inspiration. Stubborn strength. Toil. Endurance. Persistence. Teaching. Help from superiors. Patience. Organization. Peace. Goodness of heart. Occult force voluntarily invoked.",
                "seph_number": "16. Chesed to Chokmah. Links ‘Mercy’ and ‘Wisdom’; or Memory with Infinite Will.",
                "hebrew_name": "Vav, nail or hook. Used to refer to the hooks by which the veil of the Holy Tabernacle was hung.",
                "roman": "V"
            },
            {
                "number": 4,
                "name": "The Emperor",
                "lord": "Fire is considered active, masculine, spontaneous, quick, initiating, vitalizing, and energetic.",
                "rune": "Laguz",
                "element_name": "Fire",
                "stone": "Turquoise",
                "sign_name": "Aries",
                "decan_name": "",
                "astro": "Rigel",
                "divination": "War. Conquest. Victory. Strife. Stability. Power. Originality. Government. Energy. Ambition. Ill-dignified: Over-weening pride. Megalomania. Rashness. Ill-temper.",
                "seph_number": "28. Yesod to Netzach; Links 'the Foundation' and 'Victory' or Subconsciousness with Desire.",
                "hebrew_name": "Tzaddi, the Fish-Hook, an instrument cast into water to hook and draw forth a fish.",
                "roman": "IV"
            },
            {
                "number": 3,
                "name": "The Empress",
                "lord": "Earth is considered passive, feminine, solid, physical, stable, slow-moving, and grounded.",
                "rune": "Fehu",
                "element_name": "Earth",
                "stone": "Jade",
                "sign_name": "",
                "decan_name": "Venus",
                "astro": "Pleiades",
                "divination": "Love. Beauty. Happiness. Pleasure. Success. Fruitfulness. Good fortune. Graciousness. Elegance. Gentleness. Ill-dignified: dissipation. Debauchery. Idleness. Sensuality.",
                "seph_number": "14. Binah to Chokmah. Links ‘Understanding’ and ‘Wisdom’; or Intuition with Infinite Will, Neshamah with Chiah; or ‘the Mother’ with ‘the Father",
                "hebrew_name": "Daleth, door, gate; especially the yoni as Gate of Life. Greek Delta (D)is a triangle, with all it implies.",
                "roman": "III"
            },
            {
                "number": 2,
                "name": "The High Priestess ",
                "lord": "Water is considered passive, feminine, receptive, sustaining, subconscious, creative, fluidic, and generative.",
                "rune": "Othila",
                "element_name": "Water is considered passive, feminine, receptive, sustaining, subconscious, creative, fluidic, and generative. ",
                "stone": "Amethyst",
                "sign_name": "",
                "decan_name": "Moon",
                "astro": "Sirius",
                "divination": "Pure, exalted & gracious influence enters the matter, hence change, alternation, increase & decrease, fluctuation. May be led away by enthusiasm unless careful balance maintained.",
                "seph_number": "13. Tiphereth to Kether. As on the Tree of Life, The Priestess is situated between two pillars where a veil partitions the relatively Outer from the Inner.",
                "hebrew_name": "Gimel, camel; from a root meaning, “to bear, to carry,”",
                "roman": "II"
            },
            {
                "number": 2,
                "name": "The Magician",
                "lord": "Air is considered active, masculine, intellectual, ethereal, abstract and communicative. ",
                "rune": "Ansuz",
                "element_name": "Air is considered active, masculine, intellectual, ethereal, abstract and communicative. ",
                "stone": "Carnelian",
                "sign_name": "",
                "decan_name": "Mercury",
                "astro": "Supergalactic Centre (M87)",
                "divination": "Skill. Wisdom. Adroitness. Elasticity. Craft. Cunning. Deceit. Theft. Sometimes occult wisdom or power. Messages. Business transactions. Ill-dignified: Learning or intelligence interfering with the matter at hand.",
                "seph_number": "12. Binah to Kether. Links ‘Understanding’ and ‘the Crown’; or Intuition with Unconditional Being, Neshamah with Yechidah.",
                "hebrew_name": "Beth, house, including temple or house per se; or something to house or contain something else, or in which to dwell. An architectural construct.",
                "roman": "I"
            },
            {
                "number": 3,
                "name": "Three of Disks",
                "lord": "Earth is considered passive, feminine, solid, physical, stable, slow-moving, and grounded.",
                "rune": "",
                "element_name": "Earth",
                "stone": "",
                "sign_name": "Capricorn",
                "decan_name": "Mars",
                "astro": "",
                "divination": "Business, paid employment, commercial transaction, constructive building up, increase of material things, growth, commencement of matters to be established latter. Ill dignified: Selfish, narrow, prejudiced, greedy person seeking impossibilities.",
                "seph_number": "3. Binah, Understanding, Saturn, the Mother, the original idea of the element has become fertilized and formed a triangle to allow the birth of the Child.",
                "hebrew_name": "Working, constructive force, building up, creation, erection; endurance, perseverance, obstinacy.",
                "roman": ""
            },
            {
                "number": 2,
                "name": "Two of Disks",
                "lord": "Earth is considered passive, feminine, solid, physical, stable, slow-moving, and grounded.",
                "rune": "",
                "element_name": "Earth",
                "stone": "",
                "sign_name": "Capricorn",
                "decan_name": "Jupiter",
                "astro": "",
                "divination": "Harmony of change, alternation of gain and loss, weakness and strength, elation and melancholy, varying occupation, wandering, visit to friends, pleasant change, industrious yet unreliable person.",
                "seph_number": "2. Chokmah, Wisdom, the Zodiac, the Father, in practice shows polarity or seeming division.",
                "hebrew_name": "The harmony of change. Alternation of gain and loss, weakness and strength. Ever-changing occupation; discontented with any fixed condition of things.",
                "roman": ""
            },
            {
                "number": 1,
                "name": "Ace of Disks",
                "lord": "The Root of the Powers of Earth",
                "rune": "",
                "element_name": "Earth",
                "stone": "",
                "sign_name": "",
                "decan_name": "",
                "astro": "",
                "divination": "Root power of earth. Material gain, power, labor, wealth, contentment, materiality in all senses.",
                "seph_number": "1. Kether, Crown, the Seed or Root; represents the root of the forces of the four elements.",
                "hebrew_name": "",
                "roman": ""
            }
        ]
    }
}